{
    "name": "InputControls",
    "maps": [
        {
            "name": "Player",
            "id": "c695b457-ee52-4c8d-8abf-a02a5089f016",
            "actions": [
                {
                    "name": "Movement",
                    "type": "Button",
                    "id": "9e023ed4-112c-4735-bf80-13f397778dbd",
                    "expectedControlType": "Button",
                    "processors": "",
                    "interactions": ""
                },
                {
                    "name": "Jump",
                    "type": "Button",
                    "id": "af134809-cd9e-4259-bf60-7bb99de898a0",
                    "expectedControlType": "Button",
                    "processors": "",
                    "interactions": ""
                },
                {
                    "name": "Look",
                    "type": "PassThrough",
                    "id": "f44c11c7-111b-41c4-ab69-7bf763217f6c",
                    "expectedControlType": "Vector2",
                    "processors": "",
                    "interactions": ""
                },
                {
                    "name": "Shoot",
                    "type": "Button",
                    "id": "da458b02-150f-4ec3-804d-32818ffa0ce5",
                    "expectedControlType": "Button",
                    "processors": "",
                    "interactions": ""
                }
            ],
            "bindings": [
                {
                    "name": "WASD",
                    "id": "38f7352c-63f7-4e0e-ad35-21baf8faeffc",
                    "path": "2DVector",
                    "interactions": "",
                    "processors": "",
                    "groups": "",
                    "action": "Movement",
                    "isComposite": true,
                    "isPartOfComposite": false
                },
                {
                    "name": "up",
                    "id": "c465dde7-15d9-473f-b794-2ce1c26e061b",
                    "path": "<Keyboard>/w",
                    "interactions": "",
                    "processors": "",
                    "groups": "",
                    "action": "Movement",
                    "isComposite": false,
                    "isPartOfComposite": true
                },
                {
                    "name": "down",
                    "id": "ce2b7a41-46dd-47c4-b67e-df60f6db4892",
                    "path": "<Keyboard>/s",
                    "interactions": "",
                    "processors": "",
                    "groups": "",
                    "action": "Movement",
                    "isComposite": false,
                    "isPartOfComposite": true
                },
                {
                    "name": "left",
                    "id": "1f41eb60-08c0-42e6-92bf-3af9cd79b0a2",
                    "path": "<Keyboard>/a",
                    "interactions": "",
                    "processors": "",
                    "groups": "",
                    "action": "Movement",
                    "isComposite": false,
                    "isPartOfComposite": true
                },
                {
                    "name": "right",
                    "id": "184aa2d7-1ec6-4c4f-b4ca-765cc2891512",
                    "path": "<Keyboard>/d",
                    "interactions": "",
                    "processors": "",
                    "groups": "",
                    "action": "Movement",
                    "isComposite": false,
                    "isPartOfComposite": true
                },
                {
                    "name": "",
                    "id": "b91006b4-be4c-4483-bca7-a6ed09cc04cd",
                    "path": "<Keyboard>/space",
                    "interactions": "Press",
                    "processors": "",
                    "groups": "",
                    "action": "Jump",
                    "isComposite": false,
                    "isPartOfComposite": false
                },
                {
                    "name": "",
                    "id": "622ccfd3-afea-4a30-9d5b-1d65cb7e3366",
                    "path": "<Mouse>/delta",
                    "interactions": "",
                    "processors": "",
                    "groups": "",
                    "action": "Look",
                    "isComposite": false,
                    "isPartOfComposite": false
                },
                {
                    "name": "",
                    "id": "7f09bad5-5590-47e0-b671-7d09910e2ed1",
                    "path": "<Mouse>/leftButton",
                    "interactions": "Press",
                    "processors": "",
                    "groups": "",
                    "action": "Shoot",
                    "isComposite": false,
                    "isPartOfComposite": false
                }
            ]
        }
    ],
    "controlSchemes": []
}